…
#### 2c. Use this data frame to get simulated upper quartiles for each sample size.

``` r
vole_df_Q <- 
  vole_df %>%
  group_by(sim) %>%
  mutate(quantile = quantile(sample(vole_vaso, samp_size, replace = TRUE), probs = 0.75)) %>% ungroup()
vole_df_Q
```

    ## # A tibble: 1,600 × 3
    ##    samp_size   sim quantile
    ##        <int> <int>    <dbl>
    ## 1          5     1    70.00
    ## 2          6     2    67.25
    ## 3          7     3    85.50
    ## 4          8     4    83.00
    ## 5          9     5    74.00
    ## 6         10     6    70.50
    ## 7         11     7    81.00
    ## 8         12     8    66.50
    ## 9         13     9    82.00
    ## 10        14    10    83.75
    ## # ... with 1,590 more rows
…
